{
    "E2COVersion": "0.3.0",

    "E2COPort": 8333,

    "E2COSLALiteEndPoint": "http://192.168.70.13:8090",
    "E2COPrometheusPushgatewayEndPoint": "http://192.168.70.13:9091",
    "E2COPrometheusEndPoint": "http://192.168.70.13:9090",
    "DefaultRESTAPIEndPoint": "https://kubernetes.default:443",

    "Database": "memory",
    "DatabaseConnection": "memory",
    "DatabaseRepository": "",

    "Orchestrators": [],
    
	"E2CO_WARMING_TIME": 90,
	"E2CO_CONFIGSVC_ENDPOINT": "http://192.168.70.13:8000/api/",
	"E2CO_CONFIGSVC_CREDENTIALS": "url:http://192.168.70.13:8000/api/authenticate,username:api,password:apiH2020",

	"E2CO_KAFKA_CLIENT": "ssl",
	"E2CO_KAFKA_ENDPOINT": "192.168.70.13:32160",
	"E2CO_KAFKA_VIOLATION_TOPIC": "sla_violation",
	"E2CO_KAFKA_CONFIG_TOPIC": "configuration",
	"E2CO_KAFKA_DEPLOY_TOPIC":	"deployment",
	"E2CO_KAFKA_SOE_TOPIC": "soe_provisioning",
	"E2CO_KAFKA_RESPONSE_TOPIC": "responses",
	"E2CO_KAFKA_KEYSTORE_PASSWORD":	"password",
	"E2CO_KAFKA_KEY_PASSWORD": "password",
	"E2CO_KAFKA_TRUSTSTORE_PASSWORD": "password",
	"E2CO_KAFKA_KEYSTORE_LOCATION":	"$HOME/tmp/kafka/keystore/localdev/kafka.client.keystore.p12",
	"E2CO_KAFKA_TRUSTSTORE_LOCATION": "$HOME/tmp/kafka/truststore/localdev/kafka.client.truststore.pem"
}